^C:\USERS\VLADIMIR\ONEDRIVE\DESKTOP\C++ TUTORIALS\SYMBOLS\CHATCLIENT\RELEASE\SOURCE.OBJ
C:\USERS\VLADIMIR\ONEDRIVE\DESKTOP\C++ TUTORIALS\SYMBOLS\CHATCLIENT\RELEASE\CHATCLIENT.EXE
C:\USERS\VLADIMIR\ONEDRIVE\DESKTOP\C++ TUTORIALS\SYMBOLS\CHATCLIENT\RELEASE\CHATCLIENT.PDB
